The database name is: jfragle
There are __ Tables
each one of the tables is described as follow



____________________________________________________________
Table name      ||   Description
============================================================
Order           ||   Has __ columns named:
                ||   orderID, tableNumber, timeordered,
                ||   productID, quantity, subtotal  
------------------------------------------------------------
products        ||   This contains
                ||   prodID, prodName, image, description,    
                ||   categoryID
------------------------------------------------------------
users           ||   this will contain the waiter and the                    
                ||   manager. with the following collumns:
                ||   userID, rank, userName, password, 
                ||   loginTime